P-CAD Net List Load Errors

======================================================================

Netlist filename: D:\a1\Projects\01_Invertors\2015\M-01-15002\HW\M-01-15002.net
Warning: line 7397
   * Component X6 type mismatch between board (X-2SM-25) and netlist file (X-2SM-25-X)
Warning: line 7402
   * Component X7 type mismatch between board (X-2SM-25) and netlist file (X-2SM-25-X)
Warning: line 7413
   * Component X4 type mismatch between board (X-2SM-25) and netlist file (X-2SM-25-X)
Error: line 7418
   * Component X-2SM-25-X not loaded.  Pattern name mismatch between existing component and component being loaded.  (X-2SM-25 and X-2SM-2.54-7.6_S).
Error: line 7423
   * Component X-2SM-25-X not loaded.  Pattern name mismatch between existing component and component being loaded.  (X-2SM-25 and X-2SM-2.54-7.6_S).
Warning: line 7439
   * Component U3 value mismatch between board (DSPIC33EP256MC504) and netlist file ()
Warning: line 7498
   * Component X9 type mismatch between board (X-2SM-25) and netlist file (X-2SM-25-X)
Warning: line 7630
   * Component C4 value mismatch between board (220.0X16v) and netlist file ()
Warning: line 7670
   * Component U100 value mismatch between board (VIPER12A) and netlist file ()
Warning: line 7718
   * Component DA2 value mismatch between board (LM358) and netlist file ()
Warning: line 7723
   * Component DD2 value mismatch between board (ULN2003) and netlist file ()
Warning: line 8125
   * Component DA107 value mismatch between board (ACS758) and netlist file ()
Warning: line 8178
   * Component C194 value mismatch between board (0.1) and netlist file ()
Warning: Net +BATTARY has less than two nodes.
Error: Net +15V: Refdes X3 of X3-2 not found.
Error: Net +15V: Refdes X2 of X2-2 not found.
Error: Net NET00173: Refdes X2 of X2-1 not found.
Error: Net NET00160: Refdes X3 of X3-1 not found.

Net List Errors:   6
Net List Warnings: 12























----------------------------------------------------------------------

27-Feb-15  16:47                                            Page    1

