Library Integration Error Report

======================================================================

























































----------------------------------------------------------------------

26-Jan-15  14:47                                            Page    1

